         1e-11      54.9665
   1.10304e-11      52.3475
   1.21669e-11      49.8545
   1.34205e-11      47.4813
    1.4808e-11      45.2152
   1.63646e-11       43.025
   1.81111e-11      40.9128
   2.00055e-11      38.9429
   2.20603e-11      37.1007
   2.43333e-11      35.3421
   2.68405e-11      33.6685
   2.97499e-11      31.9991
   3.28152e-11      30.4873
   3.61964e-11      29.0488
    3.9926e-11      27.6801
   4.40398e-11      26.3779
   4.85775e-11      25.1392
   5.35828e-11       23.961
   5.91038e-11      22.8403
   6.51937e-11      21.7745
   7.19111e-11      20.7611
   7.93206e-11      19.7976
   8.74935e-11      18.8816
   9.65086e-11      18.0111
   1.06453e-10      17.1838
   1.17851e-10      16.3692
   1.30308e-10      15.6061
   1.44741e-10      14.8504
   1.60781e-10      14.1353
    1.7859e-10      13.4593
    1.9838e-10      12.8202
   2.20364e-10      12.2163
   2.45029e-10      11.6407
   2.72342e-10      11.0997
   3.02522e-10      10.5923
   3.36031e-10      10.1141
   3.74506e-10      9.64961
   4.17608e-10      9.21102
   4.63863e-10       8.8136
   5.15737e-10      8.43674
   5.76043e-10      8.06829
   6.42118e-10      7.72987
   7.17855e-10      7.40532
   8.02992e-10      7.10137
   9.01149e-10      6.81078
    1.00802e-9      6.54885
    1.12757e-9      6.30607
     1.2702e-9      6.06797
    1.42891e-9      5.85168
     1.6141e-9      5.64667
    1.82216e-9      5.46061
    2.06702e-9      5.28488
    2.36121e-9      5.11776
      2.703e-9      4.96585
    3.10515e-9      4.82722
    3.59714e-9      4.69763
    4.19647e-9      4.57919
     4.9302e-9      4.47227
    5.87364e-9      4.37329
    7.09669e-9      4.28371
    8.69496e-9      4.20442
    1.08797e-8      4.13364
    1.40002e-8      4.07084
    1.86583e-8      4.01618
    2.52579e-8      3.97326
       2.53e-8      3.97305
    3.74525e-8      3.93373
    6.11549e-8      3.90198
    1.17317e-7      3.87796
    3.08445e-7      3.86176
    2.16219e-6      3.85324
    2.56308e-5      3.85205
    3.95708e-5      3.85207
       0.11186      3.62291
      0.182512      3.50252
      0.227847       3.4478
      0.255624      3.43282
          0.26      3.43141
      0.281975      3.44316
      0.302116      3.47942
      0.312187      3.51354
      0.322257      3.56326
          0.33      3.61324
          0.34      3.70565
          0.35      3.83918
      0.359945      4.03404
          0.37      4.33032
          0.38       4.7895
          0.39      5.53423
           0.4       6.7948
         0.405      7.73895
          0.41      8.97931
         0.415      10.5689
          0.42      12.4823
         0.425      14.4897
          0.43      16.0598
         0.435      16.5542
      0.439986      15.7646
         0.445      14.1033
          0.45      12.2055
         0.455      10.4709
          0.46      9.04012
         0.465      7.91047
          0.47       7.0316
         0.475      6.34726
          0.48      5.81014
         0.485      5.38376
          0.49       5.0411
         0.495      4.76216
           0.5      4.53237
          0.51      4.17926
          0.52       3.9235
          0.53      3.73147
          0.54      3.58255
          0.55      3.46384
          0.56      3.36713
          0.57      3.28652
      0.584091      3.19414
           0.6      3.10811
      0.624374      3.00727
      0.644515      2.94024
      0.669311      2.87341
           0.7      2.80721
      0.730047      2.76059
          0.76      2.72901
          0.78      2.71991
           0.8      2.72302
          0.82      2.74303
          0.84      2.78774
          0.86      2.87056
          0.88      3.01501
           0.9      3.26413
          0.91      3.45073
          0.92      3.69777
          0.93      4.02543
          0.94      4.45828
          0.95      5.02141
          0.96      5.72737
          0.97      6.50815
          0.98      7.36354
          0.99      7.96896
             1      8.15295
          1.01      7.86958
          1.02      7.26714
        1.0325       6.3798
          1.04      5.86551
          1.05      5.27144
          1.06      4.78072
          1.07      4.38298
          1.08      4.06174
          1.09      3.80141
           1.1      3.58869
          1.11      3.41391
          1.12      3.26766
          1.13        3.145
          1.14      3.04214
          1.15      2.95474
          1.16      2.88003
          1.17       2.8173
          1.18      2.76433
          1.19      2.72194
           1.2      2.68863
          1.21      2.66686
          1.22      2.65795
          1.23      2.66746
          1.24       2.6987
          1.25      2.76835
          1.26      2.89907
          1.27       3.1373
          1.28      3.57322
         1.285      3.91298
          1.29      4.36656
         1.295      4.94811
       1.30125      5.79333
         1.305      6.28564
          1.31      6.69738
         1.315      6.67994
          1.32      6.26517
          1.33      5.03868
          1.34      4.07374
          1.35       3.4682
          1.36      3.09074
          1.37       2.8443
          1.38      2.67432
          1.39      2.55098
           1.4      2.45741
          1.45      2.19417
           1.5      2.05692
          1.55      1.96131
           1.6      1.89023
          1.62      1.88038
          1.63      1.90281
          1.64      2.06954
         1.642      2.18864
         1.643      2.28463
         1.644      2.42393
       1.64475      2.57843
         1.645      2.63413
       1.64587      2.92042
         1.646      2.96801
       1.64625       3.1005
       1.64694      3.48608
         1.647      3.52984
       1.64713      3.64091
       1.64794      4.44309
         1.648      4.51543
       1.64813      4.68855
       1.64844      5.15974
       1.64856      5.37389
       1.64887      5.97321
         1.649      6.22307
        1.6495      7.33482
       1.64994      8.24973
          1.65      8.35938
       1.65013      8.52245
       1.65044      8.84797
       1.65053      8.88439
       1.65062      8.85569
       1.65094      8.67148
       1.65103      8.56745
       1.65119      8.29697
        1.6515      7.70316
         1.652      6.59151
       1.65225      6.11772
       1.65294      4.85462
       1.65303      4.71159
       1.65313      4.59875
       1.65394      3.72074
         1.654      3.66295
       1.65412      3.57333
       1.65494      3.07703
       1.65506      3.01606
       1.65575      2.76447
         1.656       2.6776
       1.65675       2.5024
         1.657      2.44753
         1.658      2.29504
         1.659      2.18935
          1.66      2.11364
         1.665      1.92977
          1.67      1.86129
         1.675      1.82648
        1.6835      1.79295
         1.685      1.78941
         1.686      1.80788
         1.687      1.85512
         1.688      1.91367
         1.689       1.9635
          1.69      1.98297
         1.691      1.95795
         1.694      1.78897
         1.695      1.76611
       1.73213      1.70393
          1.76      1.66059
          1.78      1.62469
           1.8      1.57925
          1.82      1.57026
         1.822      1.60623
         1.824       1.6846
        1.8255      1.81055
         1.826      1.85629
        1.8265      1.94958
       1.82794      2.22932
         1.828      2.24647
       1.82812      2.29325
       1.82987      3.04319
          1.83      3.10315
       1.83025      3.25888
       1.83187      4.30635
         1.832      4.37803
        1.8325       4.5617
       1.83294      4.71083
       1.83306      4.72769
       1.83375      4.67665
         1.834      4.64814
        1.8345       4.4765
         1.835      4.29424
         1.836      3.86987
         1.837      3.48784
         1.838      3.17836
         1.839      2.93624
          1.84      2.74831
         1.842      2.48413
         1.844      2.31354
         1.846      2.19802
         1.848      2.11654
          1.85      2.05703
         1.852      2.01277
         1.854      1.97932
         1.856        1.954
         1.859       1.9283
          1.86      1.92162
         1.865      1.90665
          1.87      1.91627
         1.875      1.95343
          1.88      2.02866
         1.885      2.16205
          1.89      2.38377
         1.895      2.71295
           1.9      3.06453
         1.905      3.18019
          1.91      2.95861
         1.915      2.62516
          1.92      2.34811
         1.925      2.15208
          1.93      2.01695
         1.935      1.92186
          1.94      1.85284
          1.95      1.76031
          1.96      1.70125
          1.97      1.65943
          1.98      1.62752
         1.995      1.59055
             2      1.57952
          2.05      1.49511
           2.1      1.42199
          2.15      1.33888
           2.2      1.22046
          2.22      1.15206
          2.24      1.06235
          2.26     0.941367
          2.28     0.777165
           2.3     0.563217
       2.30875     0.457922
       2.31575     0.373152
         2.321     0.311522
         2.324     0.278201
         2.327     0.246731
         2.329        0.227
         2.331     0.208432
         2.333     0.191158
        2.3345      0.17916
         2.336     0.167944
        2.3375     0.157695
         2.339     0.148315
        2.3405      0.13999
        2.3415      0.13498
        2.3425     0.130435
        2.3435     0.126355
        2.3445      0.12275
        2.3455     0.119635
        2.3465      0.11701
        2.3475     0.114875
        2.3485      0.11323
        2.3495     0.112085
        2.3505      0.11144
         2.351     0.111257
         2.352     0.111347
         2.353     0.111938
       2.35417     0.113245
       2.35536     0.115258
         2.357     0.119112
         2.358     0.122076
         2.359     0.125495
          2.36     0.129345
        2.3615     0.135975
         2.363     0.143454
        2.3645      0.15188
         2.366     0.161078
         2.368     0.174592
          2.37     0.189373
         2.375     0.231005
          2.38     0.277698
           2.4     0.480677
          2.41     0.575463
          2.42     0.659639
          2.43     0.732241
          2.44     0.793775
          2.45      0.84541
          2.46     0.888505
          2.47     0.924399
          2.48     0.954252
          2.49     0.979105
           2.5     0.999793
          2.52      1.03138
          2.54      1.05329
          2.56      1.06839
          2.58      1.07859
           2.6      1.08529
          2.65      1.09249
           2.7       1.0928
          2.75       1.0912
           2.8      1.09191
          2.85      1.10051
         2.865      1.10845
          2.87      1.11214
          2.88      1.13081
         2.882      1.14014
         2.884      1.15692
         2.886      1.19633
       2.88687       1.2385
         2.887      1.24797
       2.88719      1.27197
       2.88791       1.3797
         2.888      1.39989
        2.8881      1.43037
        2.8882      1.47092
        2.8883      1.52218
       2.88838      1.56897
       2.88845      1.62605
        2.8885      1.67189
       2.88855      1.72551
        2.8886       1.7884
       2.88865      1.86228
        2.8887      1.94905
       2.88875      2.05044
        2.8888      2.16726
       2.88885      2.29816
       2.88895      2.57514
       2.88899      2.66613
       2.88901      2.71595
       2.88904      2.75365
       2.88906      2.77641
       2.88908       2.7822
        2.8891       2.7774
       2.88913      2.75366
       2.88915      2.70978
       2.88917      2.64642
        2.8892      2.56526
       2.88923      2.46894
       2.88926      2.30345
       2.88935      1.88547
       2.88937      1.77304
        2.8894      1.66814
       2.88943      1.57209
       2.88945      1.48555
       2.88948      1.40867
        2.8895       1.3412
       2.88952      1.28257
       2.88955      1.23205
       2.88958       1.1888
        2.8896      1.15198
       2.88963      1.12077
       2.88966      1.08283
        2.8897       1.0536
       2.88974      1.03123
       2.88978      1.01424
       2.88983     0.997914
       2.88987     0.986757
       2.88995     0.976369
       2.89003     0.970977
       2.89011     0.969809
        2.8905     0.978051
         2.891     0.998022
         2.892      1.02772
         2.894      1.05711
         2.896      1.07139
         2.899       1.0829
           2.9      1.08573
          2.95      1.13701
             3      1.20663
         3.005      1.23001
        3.0055       1.2376
         3.006      1.25187
        3.0062      1.26212
        3.0064      1.27893
        3.0065      1.29221
        3.0066      1.31252
       3.00668       1.3367
       3.00673      1.36125
       3.00676      1.38755
       3.00679      1.41081
       3.00681      1.44038
       3.00684        1.478
       3.00686      1.52546
       3.00689      1.58422
       3.00691      1.65476
       3.00694      1.73589
         3.007      1.95534
       3.00702      2.01229
       3.00704      2.05779
       3.00706       2.0878
       3.00707      2.09755
       3.00708      2.09907
       3.00709      2.09513
        3.0071      2.08171
       3.00711      2.05894
       3.00712      2.02726
       3.00714       1.9648
       3.00716      1.88778
       3.00719       1.7705
       3.00723      1.55792
       3.00725      1.47494
       3.00727      1.40105
       3.00729      1.33768
       3.00731      1.28525
       3.00732      1.24335
       3.00734      1.21098
       3.00736      1.18684
       3.00738       1.1746
        3.0074       1.1575
       3.00743      1.14776
       3.00746      1.14179
       3.00748      1.14115
        3.0076      1.14878
        3.0078      1.16404
         3.008      1.17422
        3.0084      1.18646
         3.009      1.19641
          3.01       1.2052
         3.015      1.22366
          3.04      1.28692
         3.055       1.3326
          3.06      1.34902
          3.08      1.42694
           3.1      1.52415
          3.12      1.64405
          3.14      1.78965
          3.16      1.96234
         3.175       2.1092
          3.19      2.26785
         3.201      2.39945
        3.2045       2.4566
         3.206      2.49247
         3.207      2.52751
         3.208      2.58351
       3.20887      2.67387
         3.209      2.69261
       3.20925      2.75261
       3.20988      2.92074
          3.21      2.96716
       3.21012      3.03418
       3.21038      3.19614
       3.21047      3.27063
       3.21056      3.36596
       3.21069      3.51978
       3.21091      3.81209
         3.211       3.9552
        3.2111       4.1346
        3.2112      4.33817
        3.2114      4.76418
        3.2115      4.95282
       3.21158      5.06665
       3.21165      5.14703
       3.21172      5.18713
       3.21175       5.1908
       3.21182      5.17204
        3.2119      5.11015
       3.21198      5.01011
       3.21205      4.88056
        3.2122      4.57501
        3.2124      4.15462
        3.2125      3.96305
        3.2126      3.79069
        3.2127      3.63902
        3.2128      3.50699
        3.2129      3.39305
         3.213      3.29493
       3.21315      3.17297
        3.2133      3.07543
       3.21345      2.99699
        3.2136      2.93347
        3.2138      2.86645
         3.214      2.81463
        3.2143      2.75713
        3.2146      2.71747
         3.215      2.67895
         3.216      2.62991
         3.217      2.61042
         3.218      2.60432
       3.22025      2.61008
         3.224      2.63828
         3.245      2.83595
          3.26      2.95874
          3.27      3.02675
          3.28      3.08244
         3.295      3.14273
          3.31      3.17704
         3.327       3.1893
         3.349      3.17328
       3.38525      3.11425
        3.4005      3.08682
          3.43      3.05138
       3.43563      3.05561
        3.4375      3.06948
         3.438      3.08423
       3.43831       3.1132
       3.43841      3.13486
       3.43847      3.16523
       3.43853      3.21507
       3.43859      3.28439
       3.43869      3.41221
       3.43887       3.6838
       3.43897      3.79644
       3.43903      3.85054
       3.43913      3.90018
       3.43931      3.94947
       3.43942      3.96205
        3.4395      3.95107
          3.44      3.63501
       3.44006      3.62577
       3.44012      3.62963
       3.44031      3.67397
       3.44044      3.71863
       3.44053      3.77325
       3.44062      3.84958
       3.44081       4.0314
       3.44091      4.13369
         3.441      4.26072
       3.44109      4.42289
       3.44125       4.7397
        3.4415      5.25281
       3.44158      5.38548
       3.44165      5.48867
       3.44173      5.54903
       3.44178      5.56087
       3.44182      5.54869
       3.44187      5.51299
       3.44195      5.41984
       3.44203      5.27723
       3.44213      5.08105
       3.44237      4.52368
       3.44247      4.33461
       3.44256      4.17808
       3.44269      4.01152
       3.44291      3.75616
         3.443      3.66558
       3.44309      3.59641
       3.44331      3.47778
        3.4435      3.39255
       3.44369      3.33563
         3.444      3.26277
       3.44438      3.20779
       3.44475      3.17023
         3.445       3.1524
          3.45      3.05387
         3.455      3.03709
          3.47      3.02004
           3.5      3.01113
        3.5399      3.02723
          3.61      3.07628
          3.63      3.08118
        3.6462      3.07823
        3.6463      3.07824
        3.6782      3.04915
         3.715        2.996
          3.72      2.99108
          3.73      2.99916
          3.74      3.06648
         3.745      3.16693
          3.75      3.39819
       3.75375      3.83243
         3.755      3.98499
       3.75625       4.3184
          3.76      5.33978
         3.761      5.62504
         3.762      5.82198
       3.76275      5.87066
         3.763      5.87793
       3.76375      5.80774
         3.764      5.77638
         3.765        5.545
         3.766        5.238
        3.7675      4.75215
         3.768      4.59693
         3.769      4.31876
          3.77       4.0812
         3.772      3.71466
         3.774      3.45975
         3.776      3.28068
         3.778      3.15112
          3.78      3.05503
         3.785      2.89754
          3.79      2.80176
         3.795      2.73544
           3.8       2.6846
          3.81      2.60637
          3.82      2.54373
          3.83      2.48893
          3.85      2.39353
          3.87      2.31233
         3.895       2.2303
          3.92      2.16893
          3.94      2.13412
          3.97       2.0904
          3.99       2.0551
             4      2.03572
          4.01      1.97746
          4.02      1.88873
          4.03      1.76154
          4.04      1.59875
          4.05      1.42422
          4.06      1.27613
          4.07      1.17881
          4.08      1.12813
          4.09      1.10707
           4.1      1.10165
          4.11      1.10758
          4.12      1.13064
          4.13      1.18493
          4.14      1.29021
          4.15      1.46205
        4.1625      1.74565
         4.165       1.8038
          4.17      1.90983
         4.175      1.99697
          4.18      2.05966
         4.185      2.09618
          4.19      2.10831
         4.195      2.09955
           4.2      2.07459
         4.205      2.03752
          4.21      1.99193
          4.22      1.88575
         4.255      1.47743
          4.26      1.42234
         4.265      1.37178
          4.27      1.32985
         4.275      1.30458
          4.28      1.30979
         4.285      1.36712
          4.29       1.5011
         4.295      1.72004
       4.30125      2.06755
         4.305      2.27976
          4.31      2.52666
         4.315      2.71619
          4.32      2.84021
         4.323      2.88316
         4.326      2.90424
         4.328      2.90742
       4.33063       2.8985
         4.335      2.86536
          4.34      2.80205
          4.36      2.48439
          4.37       2.3439
          4.38      2.22489
          4.39      2.12508
           4.4      2.04157
          4.41      1.97206
          4.42      1.91536
          4.43      1.87147
          4.44      1.84327
         4.445      1.83696
        4.4475       1.8369
         4.455      1.84167
          4.46      1.83209
         4.462      1.80655
         4.464      1.74947
         4.466      1.64534
          4.47      1.34977
        4.4715      1.27382
         4.472      1.25056
       4.47425       1.2153
         4.475      1.20515
          4.48      1.23935
         4.485      1.27964
          4.49      1.30297
         4.495      1.31271
           4.5      1.31314
       4.50562      1.30587
         4.515      1.28454
          4.52      1.27789
       4.52225       1.2845
        4.5235       1.2953
         4.524      1.30134
         4.525      1.31991
         4.526      1.34929
         4.527      1.39534
       4.52775      1.44776
         4.528      1.46751
       4.52875      1.54912
         4.529      1.57973
        4.5295      1.66205
       4.52987      1.72663
          4.53      1.75093
        4.5305       1.8713
         4.531      1.99885
        4.5315      2.15545
       4.53288      2.59439
         4.533      2.62939
       4.53325      2.68312
       4.53387      2.80045
       4.53406      2.82109
       4.53422       2.8242
       4.53487      2.81851
         4.535      2.81222
       4.53525      2.78219
         4.536      2.67034
        4.5375      2.39095
         4.538      2.30219
         4.539       2.1509
          4.54      2.03006
       4.54375      1.77772
         4.545      1.69638
          4.55      1.55851
         4.555      1.48525
          4.56      1.43853
         4.565      1.40507
          4.57      1.37905
         4.575      1.35774
         4.585      1.32404
         4.593      1.30394
         4.599       1.2947
       4.59975       1.2945
           4.6      1.29604
       4.60112      1.33034
        4.6015       1.3369
         4.602      1.33923
        4.6025      1.33483
        4.6035      1.31395
        4.6045       1.2922
         4.605      1.28316
          4.61      1.27236
         4.615      1.26908
          4.62      1.27398
         4.625      1.29717
         4.627      1.31762
        4.6285       1.3417
        4.6295      1.36365
          4.63      1.37647
         4.631       1.4092
         4.632      1.45239
         4.633      1.50975
         4.634      1.58452
         4.635      1.67785
         4.636      1.78168
         4.637      1.86976
       4.63775      1.89622
         4.638      1.90007
       4.63825      1.89072
       4.63875      1.86395
         4.639      1.84766
          4.64      1.73767
       4.64484      1.32001
         4.645      1.30933
       4.64531      1.29946
          4.65      1.19878
         4.655      1.16007
          4.66      1.13936
         4.665      1.12463
          4.68      1.09072
         4.725      1.00391
         4.745     0.968847
          4.76      0.94771
          4.77     0.939814
         4.775     0.939325
          4.78      0.94241
         4.785     0.950529
          4.79     0.965708
         4.795     0.990848
           4.8      1.02999
         4.805      1.08815
          4.81       1.1714
         4.815      1.28521
          4.82      1.43001
       4.82875      1.71765
          4.83      1.75798
         4.832      1.81399
         4.834      1.86156
         4.836      1.89933
         4.838      1.92613
          4.84      1.94183
         4.842      1.94686
         4.845      1.93655
          4.85      1.88325
         4.855      1.80472
        4.8625       1.6772
          4.87      1.55495
          4.88      1.42255
          4.89      1.31941
           4.9      1.23788
          4.91      1.17196
          4.92      1.11714
          4.93      1.07063
          4.94      1.03033
          4.95     0.995212
          4.96     0.964474
          4.97     0.938445
          4.98     0.917474
          4.99     0.903255
             5     0.897953
          5.01     0.905116
          5.02     0.929302
          5.03     0.975642
          5.04      1.04812
          5.05      1.14359
          5.07      1.36806
          5.08      1.47186
          5.09      1.56799
           5.1      1.68108
         5.103      1.72735
         5.106      1.78337
         5.108      1.82922
          5.11      1.88357
         5.112      1.94854
         5.114      2.02681
        5.1155      2.09655
         5.117      2.17628
        5.1185      2.26885
          5.12      2.37381
        5.1215       2.4932
         5.123      2.62675
        5.1255        2.863
        5.1275       3.0519
        5.1285      3.13495
        5.1295      3.20465
          5.13      3.23458
         5.131      3.27631
         5.132      3.29471
         5.133      3.28793
         5.134      3.25633
         5.135       3.2019
         5.136      3.12804
         5.137      3.03925
         5.142      2.52517
         5.144      2.33955
         5.146      2.17934
         5.148      2.04407
          5.15      1.93147
         5.155      1.72444
          5.16      1.58913
         5.165      1.49616
          5.17      1.42902
          5.18      1.33755
          5.19      1.27618
           5.2      1.23045
          5.21      1.19383
          5.22      1.16302
          5.23      1.13612
          5.25      1.09062
         5.275      1.04475
          5.29      1.02233
           5.3      1.01545
        5.3075        1.103
          5.31      1.13069
        5.3125      1.07964
       5.31875      0.94774
          5.32     0.922751
        5.3275     0.963893
       5.32984     0.977632
          5.33     0.981251
       5.33023     0.993856
       5.33984       1.6355
          5.34      1.64138
       5.34023      1.63824
       5.34984      1.29936
         5.355      1.08384
          5.36      1.00983
         5.371      0.91705
         5.372     0.913236
         5.373     0.922549
         5.374     0.952072
         5.375     0.986387
        5.3775      0.99073
          5.38     0.992933
         5.385     0.970855
          5.39     0.957413
        5.3975     0.944605
          5.41     0.931219
          5.42     0.924945
         5.435     0.921235
          5.44     0.920935
          5.45     0.923217
          5.46      0.92875
          5.47     0.938053
          5.48     0.951737
          5.49     0.970622
           5.5     0.995607
          5.51      1.02764
          5.52      1.06795
          5.53      1.11745
          5.54      1.17685
          5.55      1.24615
          5.56      1.32464
          5.58      1.49795
          5.59      1.58585
           5.6      1.66495
        5.6075       1.7151
         5.615      1.75665
        5.6225      1.78615
          5.63      1.80555
        5.6373       1.8126
        5.6398       1.8134
        5.6475       1.8064
         5.655      1.79374
         5.665      1.76515
         5.678      1.71565
          5.69       1.6576
         5.695      1.63214
          5.73      1.48022
          5.75      1.40222
          5.77      1.33322
          5.79      1.27312
          5.81      1.22112
          5.83      1.17722
         5.845      1.15042
         5.855      1.13653
        5.8675       1.1269
          5.87      1.12613
         5.875      1.12734
          5.88      1.13246
         5.885      1.14309
          5.89      1.16224
         5.895      1.19444
           5.9      1.24819
         5.905      1.33753
         5.908       1.4151
          5.91       1.4882
         5.912      1.57306
         5.915      1.73589
         5.916      1.79901
       5.91875      1.99023
         5.921      2.15068
         5.922       2.2145
         5.923      2.26901
         5.924      2.31095
         5.925      2.33744
         5.926      2.34638
         5.927      2.33684
         5.928      2.30983
         5.929      2.26699
          5.93       2.2109
         5.935      1.85039
          5.94      1.53411
         5.945      1.31808
          5.95      1.17336
         5.955      1.07075
          5.96      0.99127
         5.965     0.923634
        5.9725     0.830685
         5.975       0.8005
          5.98      0.74916
         5.982     0.738876
       5.98387     0.742976
       5.98462     0.750466
         5.985      0.75537
       5.98575     0.770624
         5.986     0.776886
       5.98775     0.846123
         5.988     0.857954
        5.9885     0.893068
        5.9895     0.967023
          5.99      1.00581
        5.9905      1.05735
         5.992      1.21778
         5.994       1.4433
         5.995      1.53673
         5.996      1.60724
         5.997      1.65324
         5.998      1.67659
         5.999      1.68155
             6      1.67289
         6.001       1.6549
         6.003      1.60436
         6.007      1.49465
         6.009      1.44575
         6.011       1.4025
         6.012      1.38247
         6.015      1.33107
         6.018      1.28872
          6.02      1.26472
         6.025      1.21543
          6.03      1.17749
         6.035      1.14767
          6.04      1.12405
         6.045      1.10515
         6.052      1.08567
         6.058      1.07677
         6.061      1.07607
         6.064      1.07941
        6.0675      1.09145
          6.07       1.1106
        6.0715       1.1294
        6.0725      1.14635
        6.0735      1.16825
         6.074      1.18097
         6.075      1.21242
         6.076      1.25116
         6.078      1.33684
       6.07875      1.35494
         6.079      1.35846
       6.07975      1.34732
       6.08003      1.33867
        6.0805      1.30815
         6.082       1.2039
         6.084      1.07602
       6.08475      1.04187
         6.085      1.03196
         6.086      1.00789
         6.088     0.975331
          6.09     0.958003
         6.092     0.948129
         6.096     0.937053
         6.106     0.922631
          6.13      0.89738
          6.15     0.880093
         6.175     0.864124
           6.2     0.854501
          6.24     0.848265
          6.25     0.847521
          6.26     0.839971
       6.27225      0.83518
          6.28     0.837632
          6.31      0.85276
         6.314     0.854018
         6.322     0.861858
         6.346     0.901355
         6.352     0.917016
         6.359     0.946075
         6.364     0.969717
         6.368     0.996214
         6.376       1.0541
         6.378       1.0722
         6.382      1.11745
         6.384      1.14099
         6.391      1.21145
         6.392      1.22019
        6.3955      1.23765
         6.396      1.23883
         6.398      1.23827
         6.401       1.2292
         6.402      1.22498
         6.404      1.20932
         6.405      1.19657
         6.406      1.17973
         6.408      1.14003
         6.412       1.0491
         6.416     0.965796
         6.418     0.930834
          6.42     0.901861
         6.425     0.837602
         6.428     0.802298
         6.431     0.770009
         6.434     0.742569
         6.439      0.70097
         6.442     0.679481
         6.444     0.668269
         6.448     0.650685
        6.4516     0.638305
         6.464     0.607159
         6.478     0.576707
         6.494      0.53846
         6.498     0.532342
         6.501      0.53099
         6.502     0.530951
        6.5093     0.535098
        6.5166     0.542656
         6.525     0.548693
         6.536     0.568441
         6.548     0.594379
         6.562     0.629256
         6.572     0.657031
         6.582     0.688481
         6.594     0.732561
           6.6     0.750585
         6.614     0.781826
         6.632     0.817517
         6.642      0.83329
          6.65     0.839212
         6.654     0.846425
         6.658     0.860783
         6.664     0.887942
         6.666     0.899814
         6.673      0.95039
        6.6745     0.959015
         6.675     0.960903
       6.67594      0.95958
          6.68     0.920255
         6.685     0.898936
         6.692     0.878522
         6.696     0.869788
           6.7     0.864962
          6.71     0.858391
          6.72     0.857058
          6.73     0.860601
          6.74     0.867814
          6.75     0.879149
          6.76     0.895483
          6.77     0.919212
         6.775     0.933811
          6.78     0.953619
          6.79      1.01522
         6.795      1.06487
           6.8      1.12104
         6.805      1.18896
          6.81      1.26138
          6.82      1.31807
         6.825      1.21851
          6.83      1.11033
          6.84     0.916536
          6.85     0.793153
          6.86     0.747962
         6.875     0.719207
          6.88     0.712801
           6.9     0.704328
       6.91875     0.705341
         6.925     0.708632
          6.94     0.706444
          6.95     0.707231
          6.96     0.711538
          6.98      0.73285
             7     0.764365
         7.025       0.8092
         7.045     0.844766
         7.055     0.857117
          7.06     0.859675
       7.06563     0.856902
        7.0775     0.840345
          7.09     0.823071
           7.1     0.811925
          7.12     0.804601
         7.125     0.805198
          7.14     0.782145
          7.15     0.777521
          7.16     0.783207
          7.17     0.826476
         7.175     0.868628
          7.18     0.939555
          7.19      1.14813
           7.2      1.37665
          7.21      1.31959
          7.22      1.20962
          7.23      1.11875
          7.24      1.03685
          7.25     0.979618
          7.26     0.963082
         7.275     0.958637
          7.28     0.951315
           7.3     0.946068
       7.31953     0.991359
       7.32109     0.999155
         7.325      1.02278
          7.33       1.0277
         7.335      1.01583
        7.3517     0.954715
          7.36     0.918123
         7.365      0.87246
          7.37     0.811288
         7.375      0.86947
          7.38     0.933007
          7.41     0.879965
          7.42     0.863187
         7.475     0.795102
           7.5     0.777929
       7.51875     0.801191
         7.525     0.804175
          7.55     0.801557
        7.5656     0.806546
         7.575     0.796766
           7.6     0.788809
        7.6125     0.796645
          7.65     0.835336
           7.7     0.890287
         7.725     0.920682
          7.76     0.942103
          7.78     0.948982
         7.825     0.958803
          7.85     0.989285
          7.86      0.99433
         7.875     0.973597
          7.88     0.959368
          7.91      0.83889
          7.92     0.797934
          7.95     0.658168
          7.96     0.617654
         7.975     0.574342
          7.98      0.56245
             8     0.536777
       8.01875     0.541227
          8.04     0.558697
          8.06     0.592527
         8.075     0.628929
          8.08     0.637143
           8.1     0.673912
         8.125     0.732284
          8.15     0.780502
         8.175      0.81024
           8.2      0.82845
        8.2325     0.845965
          8.24     0.849218
          8.25     0.848688
          8.28     0.827671
           8.3     0.807855
          8.32     0.780206
         8.355     0.723885
         8.375     0.687707
           8.4     0.663197
        8.4375      0.64106
          8.45     0.633031
           8.5     0.594332
          8.52     0.585425
          8.54     0.584117
        8.5575     0.587451
         8.575     0.595063
           8.6     0.615537
          8.62     0.645989
         8.645     0.691825
          8.65     0.701527
         8.675     0.756258
           8.7     0.814109
          8.72     0.857031
         8.725     0.865567
          8.74     0.883787
          8.75     0.891019
          8.76     0.893542
         8.775     0.886473
          8.78     0.881333
           8.8     0.849823
         8.825     0.800552
         8.875     0.718339
           8.9      0.66997
          8.92     0.649105
        8.9275     0.650955
          8.94     0.651393
          8.95     0.653735
          8.96     0.678663
        8.9775     0.680405
        8.9835     0.683685
         8.987     0.686245
          9.02     0.736584
         9.025     0.753297
          9.04     0.818298
          9.05     0.846405
       9.07969     0.753606
           9.1     0.736246
         9.125     0.710501
          9.14     0.688763
          9.18      0.63814
           9.2     0.615907
         9.225     0.601794
         9.248     0.600208
         9.274     0.605255
           9.3      0.61928
         9.325     0.651346
          9.35     0.685662
         9.375     0.713541
           9.4     0.719962
       9.42362     0.696123
        9.4315     0.691043
         9.525     0.682242
       9.58125     0.687442
           9.6     0.691347
         9.625     0.706007
          9.65     0.712655
           9.7     0.729151
         9.725     0.734072
        9.7625     0.731655
         9.775     0.729595
           9.8      0.74276
         9.825     0.744082
        9.8625      0.71982
         9.875     0.711156
           9.9     0.706635
         9.925     0.707446
          9.95      0.71389
         9.975     0.730668
            10     0.739923
         10.05     0.753868
          10.1     0.787383
        10.122      0.80009
         10.15     0.812388
        10.196     0.824525
        10.202     0.825485
        10.245     0.817674
          10.3     0.791653
        10.372     0.740475
          10.4     0.722387
         10.45     0.708588
        10.465      0.70806
        10.528     0.710319
       10.5542     0.708124
        10.563     0.705958
          10.6     0.690656
        10.667     0.686532
       10.6785      0.68767
         10.69     0.692536
          10.7     0.703307
         10.71     0.705531
         10.72     0.679568
         10.73     0.624285
       10.7487     0.669824
         10.76     0.693327
        10.775     0.720305
         10.78     0.728562
        10.825      0.79141
         10.83     0.797827
         10.84      0.80632
         10.85     0.810786
        10.865      0.80958
         10.88     0.807726
          10.9     0.813186
         10.92     0.823111
         10.93     0.836258
         10.94     0.866511
         10.95     0.907636
         10.96     0.952134
         10.97     0.979875
        10.995      0.98554
            11     0.987603
        11.009     0.996529
         11.05      1.04471
          11.1      1.10716
         11.15      1.14607
          11.2      1.10137
         11.25      1.03382
          11.3     0.977354
         11.35     0.930175
          11.4     0.899512
         11.45     0.909731
          11.5     0.940189
         11.52     0.954828
          11.6      1.00047
        11.643      1.00599
          11.7      1.00171
       11.7494      1.00605
        11.779      1.05966
       11.7985      1.07335
          11.8      1.07367
         11.85      1.06538
          11.9      1.04234
       11.9525      1.04399
         11.97      1.05014
            12      1.03676
         12.05     0.990589
         12.11     0.927035
        12.161     0.879095
          12.2     0.867827
         12.25     0.885247
          12.3     0.889138
       12.3375     0.887975
         12.45     0.876252
          12.5     0.876952
         12.55     0.875914
          12.6     0.864771
         12.65     0.848546
          12.7     0.840145
       12.7492     0.852699
         12.85     0.944213
       12.8924     0.972816
          12.9     0.974108
         12.95     0.958374
            13     0.919896
         13.05     0.894957
          13.1     0.893528
          13.2     0.909532
       13.2247     0.909043
         13.25     0.909214
          13.3     0.904338
       13.4125     0.915036
         13.45     0.920167
          13.5     0.923493
         13.55     0.921352
         13.62     0.939066
         13.65     0.952408
        13.735      1.00607
         13.74      1.00823
         13.75      1.00722
        13.765     0.999493
         13.77     0.997935
        13.785      1.00338
        13.805      1.01469
         13.81      1.01654
         13.95     0.979219
        14.025     0.946261
         14.05     0.935986
        14.125     0.949964
         14.15     0.955261
         14.35     0.973022
        14.425     0.965662
          14.5     0.961365
       14.5562     0.963462
         14.65     0.978448
         14.75      1.00154
         14.85      1.03102
         15.02       1.0446
         15.05       1.0368
          15.1       1.0135
         15.15     0.984815
          15.2     0.949074
        15.255     0.920391
       15.3921      0.87646
          15.4     0.875954
         15.55      0.88575
          15.6     0.898087
          15.7     0.916746
         15.75     0.922594
          15.8     0.920998
         15.85     0.915687
          15.9     0.905092
         15.95     0.884636
            16     0.856828
          16.1     0.843855
        16.156     0.858247
        16.212     0.875541
          16.3     0.907091
          16.4     0.928131
          16.5       0.9413
       16.5287     0.934192
        16.615     0.923405
       16.6516     0.923121
       16.7148     0.930476
         16.82     0.950067
         16.95     0.989289
            17      1.00528
          17.1      1.04496
       17.1845      1.06108
       17.2251      1.06449
       17.2502      1.06563
        17.435      1.05996
        17.488      1.06009
          17.5      1.06007
        17.845      1.06844
       18.0044      1.05747
          18.1      1.03394
          18.2      1.01824
          18.3      1.01574
          18.5      1.03402
          18.6      1.02627
          18.7      1.03782
          18.8      1.06146
          18.9      1.09781
            19      1.11183
          19.1      1.10346
          19.2      1.10751
       19.3005      1.09898
        19.401      1.07381
          19.5      1.03332
          19.6      1.00421
          19.7     0.991479
            20     0.998724
          20.1      1.00213
       20.1482      1.00741
       20.3342      1.03447
         20.42      1.04318
         20.65       1.0554
         20.82      1.05547
         20.95      1.05504
         21.25      1.06334
       21.5942      1.05799
       21.9695      1.04645
         22.15      1.04124
        22.475      1.01498
         23.05     0.997361
         23.35     0.995682
         23.65      0.99989
        23.975     0.989406
            24      0.98936
       24.2886     0.995921
       24.7505      1.01008
        25.075      1.01763
         25.15       1.0187
         25.45      1.01542
         25.75      1.01934
            26      1.02669
         26.35      1.02997
        27.675      1.02307
         27.85      1.02128
          28.5      1.02572
            29      1.03294
         29.35       1.0317
        29.575      1.04044
         29.65      1.04252
         29.95      1.04283
       31.1412      1.03653
       32.2257      1.03245
       34.8739      1.01289
       40.2822     0.963858
       41.5784     0.947873
       43.3033     0.923325
       50.3527     0.809832
       53.7477     0.761048
       57.8042     0.707594
       61.4303      0.66311
       65.4585     0.618411
       69.4867     0.578054
        73.515     0.541206
       77.5432     0.507757
       80.5643     0.485269
       83.7435     0.465274
            86      0.45168
            88       0.4377
       91.9136     0.404214
       94.6631     0.380598
            97     0.361872
       100.705     0.335214
           104     0.313522
       106.748     0.297236
       108.762     0.286331
       110.776     0.276353
        112.79     0.267217
           116     0.253466
       120.846     0.235012
       124.875     0.221068
       128.903     0.208359
       138.973     0.178873
           150     0.148001
